<?xml version="1.0" encoding="UTF-8"?>
<!-- Created with Inkscape (http://www.inkscape.org/) -->
<svg width="672" height="400" version="1.1" viewBox="0 0 672 400" xmlns="http://www.w3.org/2000/svg">
 <defs>
  <linearGradient id="linearGradient11641" x1="10.807" x2="16.002" y1="2.4829" y2="56.4" gradientTransform="matrix(.77142 0 0 1 5.8484 1)" gradientUnits="userSpaceOnUse">
   <stop stop-color="#fff" offset="0"/>
   <stop stop-color="#fff" stop-opacity="0" offset="1"/>
  </linearGradient>
  <linearGradient id="linearGradient12278" x1="35.743" x2="36.543" y1="4.375" y2="-1" gradientTransform="matrix(.84053 0 0 1 4.1706 0)" gradientUnits="userSpaceOnUse">
   <stop stop-color="#acacac" offset="0"/>
   <stop stop-color="#8d8d8d" stop-opacity="0" offset="1"/>
  </linearGradient>
  <radialGradient id="radialGradient11613-6" cx="24.345" cy="32.343" r="22.829" gradientTransform="matrix(1 0 0 .61947 0 12.307)" gradientUnits="userSpaceOnUse">
   <stop offset="0"/>
   <stop stop-opacity="0" offset="1"/>
  </radialGradient>
  <radialGradient id="radialGradient12258-7" cx="20.589" cy="14.245" r="13.262" gradientTransform="matrix(1.8664,0,0,2.3051,-16.992,-19.013)" gradientUnits="userSpaceOnUse">
   <stop stop-color="#fff" offset="0"/>
   <stop stop-color="#d9d9d9" offset=".37333"/>
   <stop stop-color="#c5c5c5" offset=".60311"/>
   <stop stop-color="#909090" offset="1"/>
  </radialGradient>
  <linearGradient id="linearGradient11958-3" x1="23.991" x2="23.991" y1="12.83" y2="7.1877" gradientUnits="userSpaceOnUse">
   <stop stop-color="#fff" offset="0"/>
   <stop stop-color="#a9a9a9" offset="1"/>
  </linearGradient>
  <linearGradient id="linearGradient11627-2" x1="23.991" x2="23.991" y1="6.5837" y2="15.069" gradientUnits="userSpaceOnUse">
   <stop stop-color="#b1b1b1" offset="0"/>
   <stop stop-color="#dfdfdf" offset=".2"/>
   <stop stop-color="#565656" offset="1"/>
  </linearGradient>
 </defs>
 <g transform="matrix(2 0 0 2 258.14 292.47)">
  <path transform="matrix(.68419 0 0 1.2411 7.9766 -9.191)" d="m47.174 32.343a22.83 14.142 0 1 1-45.659 0 22.83 14.142 0 1 1 45.659 0z" color="#000000" fill="url(#radialGradient11613-6)" fill-rule="evenodd"/>
  <path d="m23.923 10.5c-3.362-7.5-1.891-8.75 5.043-6.75 6.789 1.9579 14.499 10.25 13.869 1.5-0.668-9.2699-9.456-14-9.456-14" fill="none" stroke="url(#linearGradient12278)"/>
  <g fill-rule="evenodd">
   <path d="m9.9399 27.131c-2.4564 10.907 4.7011 18.41 15.447 18.41 10.63 0 15.915-8.69 13.726-18.41l-3.49-13.014c-0.407-1.823-1.276-2.406-1.861-2.605-5.723-2.5692-13.785-2.693-18.82 0-0.64 0.348-1.105 0.348-1.571 2.084l-3.4311 13.535z" fill="url(#radialGradient12258-7)" stroke="#4f4f4f"/>
   <g transform="matrix(.84053 0 0 1 4.1706 1)">
    <path d="m8.5737 22.948c8.2323-5.303 21.281-5.909 29.951-0.606-7.693-3.877-20.706-4.344-29.951 0.606z" fill="#fff" fill-opacity=".79661"/>
    <path d="m8.7504 22.727c8.6296-6.231 21.281-6.307 29.686-0.473-7.78-4.673-20.75-4.963-29.686 0.473z" fill-opacity=".25989"/>
   </g>
   <path transform="matrix(1.6663 0 0 1.4178 -15.706 .34787)" d="m26.163 11.331a2.172 4.7481 0 1 1-4.344 0 2.172 4.7481 0 1 1 4.344 0z" color="#000000" fill="url(#linearGradient11958-3)"/>
  </g>
  <path d="m10.487 28.908c-1.4079 8.461 4.638 15.666 14.972 15.666s14.289-8.698 13.114-15.666l-3.725-13.958c-0.309-2.196-1.22-2.407-1.759-2.619-5.851-2.296-12.674-2.4855-17.441 0-0.598 0.311-1.093 0.193-1.456 1.777z" fill="none" stroke="url(#linearGradient11641)"/>
  <path transform="matrix(.84053 0 0 1 4.0856 2.7425)" d="m26.163 11.331a2.172 4.7481 0 1 1-4.344 0 2.172 4.7481 0 1 1 4.344 0z" color="#000000" fill="url(#linearGradient11627-2)" fill-rule="evenodd" stroke="#595959" stroke-width=".54537"/>
  <path transform="matrix(.23456 0 0 .54255 17.987 6.3603)" d="m26.163 11.331a2.172 4.7481 0 1 1-4.344 0 2.172 4.7481 0 1 1 4.344 0z" color="#000000" fill="#fff" fill-opacity=".33333" fill-rule="evenodd"/>
  <path d="m15.16 13.089c-0.90056 2.0766-1.7506 6.5023-2.5623 9.7153 2.847-1.9212 5.4242-2.9165 8.5014-3.5509-0.89718-3.0423-0.29107-5.7149 1.1071-8.1929-2.4545 0.14728-6.5406 0.86243-7.0463 2.0285z" color="#000000" fill="#73d216" fill-rule="evenodd"/>
 </g>
 <rect transform="rotate(30)" x="389.24" y="-171.28" width="150" height="150" fill="#f60" fill-rule="evenodd"/>
 <ellipse cx="172.59" cy="141.1" rx="62.5" ry="112.5" fill="#0cf"/>
 <rect x="81.101" y="7.8498" width="495.65" height="278.6" fill="none" stroke="#000" stroke-linecap="round" stroke-linejoin="round"/>
 <g transform="translate(573.34 284.43)" fill="#808080" stroke="#000">
  <g>
   <path d="m4.5 4.5 7.5 7.5h-4l3 7-1 0.5-3-7-2.5 2.5z" stroke="#fff" stroke-width="3px"/>
   <path d="m4.5 4.5 7.5 7.5h-4l3 7-1 0.5-3-7-2.5 2.5z" fill="#000" stroke-width="1px"/>
  </g>
 </g>
</svg>
