<?xml version="1.0" encoding="UTF-8" standalone="no"?>
<svg xmlns:rdf="http://www.w3.org/1999/02/22-rdf-syntax-ns#" xmlns="http://www.w3.org/2000/svg" version="1.0" xmlns:cc="http://creativecommons.org/ns#" xmlns:xlink="http://www.w3.org/1999/xlink" viewBox="0 0 96 96" xmlns:dc="http://purl.org/dc/elements/1.1/">
<defs>
<linearGradient id="a">
<stop stop-color="#de0000" offset="0"/>
<stop stop-color="#fce94f" offset=".09503236"/>
<stop stop-color="#4e9a06" offset=".24177921"/>
<stop stop-color="#6e7704" stop-opacity=".77254902" offset=".31161356"/>
<stop stop-color="#fcaf3e" offset=".4219704"/>
<stop stop-color="#f37c2c" stop-opacity=".70980392" offset=".5077222"/>
<stop stop-color="#729fcf" offset=".61870992"/>
<stop stop-color="#a6516a" stop-opacity=".51372549" offset=".76384193"/>
<stop stop-color="#ad7fa8" offset=".87470341"/>
<stop stop-color="#de0000" stop-opacity="0" offset="1"/>
</linearGradient>
<filter id="d">
<feColorMatrix type="hueRotate" values="220.90909090909091"/>
</filter>
<linearGradient id="c" y2="98.033897" xlink:href="#a" gradientUnits="userSpaceOnUse" y1="8.1355934" gradientTransform="matrix(.9320388 0 0 .977169 47.545829 1.3039239)" x2="26.237288" x1="26.033897"/>
<linearGradient id="b" y2="98.033897" xlink:href="#a" gradientUnits="userSpaceOnUse" y1="8.1355934" gradientTransform="matrix(.9320388 0 0 .977169 1.545829 1.3039239)" x2="26.237288" x1="26.033897"/>
</defs>
<metadata>
<rdf:RDF>
<cc:Work rdf:about="">
<dc:format>image/svg+xml</dc:format>
<dc:type rdf:resource="http://purl.org/dc/dcmitype/StillImage"/>
<dc:title/>
<dc:date>2007-07-03</dc:date>
<dc:creator>
<cc:Agent>
<dc:title>Felipe Corrêa da Silva Sanches</dc:title>
</cc:Agent>
</dc:creator>
<dc:rights>
<cc:Agent>
<dc:title>Felipe Corrêa da Silva Sanches</dc:title>
</cc:Agent>
</dc:rights>
<dc:publisher>
<cc:Agent>
<dc:title>Felipe Corrêa da Silva Sanches</dc:title>
</cc:Agent>
</dc:publisher>
<dc:identifier>c</dc:identifier>
<dc:source/>
<dc:relation/>
<dc:language/>
<dc:subject>
<rdf:Bag>
<rdf:li>hexamines icon</rdf:li>
</rdf:Bag>
</dc:subject>
<dc:coverage/>
<dc:description>this is an image originally intended to be used in inkscape</dc:description>
<dc:contributor>
<cc:Agent>
<dc:title/>
</cc:Agent>
</dc:contributor>
<cc:license rdf:resource="http://creativecommons.org/licenses/by-sa/3.0/"/>
</cc:Work>
<cc:License rdf:about="http://creativecommons.org/licenses/by-sa/3.0/">
<cc:permits rdf:resource="http://creativecommons.org/ns#Reproduction"/>
<cc:permits rdf:resource="http://creativecommons.org/ns#Distribution"/>
<cc:requires rdf:resource="http://creativecommons.org/ns#Notice"/>
<cc:requires rdf:resource="http://creativecommons.org/ns#Attribution"/>
<cc:permits rdf:resource="http://creativecommons.org/ns#DerivativeWorks"/>
<cc:requires rdf:resource="http://creativecommons.org/ns#ShareAlike"/>
</cc:License>
</rdf:RDF>
</metadata>
<g fill-rule="evenodd" transform="matrix(1.0417683,0,0,1.0174356,-3.0901289,-1.2234494)">
<rect height="87.05085" filter="url(#d)" width="39.050846" y="4.8813562" x="52.474575" fill="url(#c)"/>
<rect height="87.05085" width="39.050846" y="4.8813562" x="6.474575" fill="url(#b)"/>
<path stroke-linejoin="round" d="m24.835721 42.76764v15.985771l25.916325-1.453252-0.726625 13.079266 17.68123-20.345527-17.439021-20.345526 0.242207 14.451783-25.674116-1.372515z" stroke-opacity=".66120217" stroke="#000" stroke-linecap="round" stroke-dasharray="2, 2" fill="#ffe61e"/>
</g>
</svg>
