<?xml version="1.0" encoding="UTF-8" standalone="no"?>
<svg xmlns:rdf="http://www.w3.org/1999/02/22-rdf-syntax-ns#" xmlns="http://www.w3.org/2000/svg" version="1.1" xmlns:cc="http://creativecommons.org/ns#" viewBox="0 0 16.041 16.0391" xmlns:dc="http://purl.org/dc/elements/1.1/">
<metadata>
<rdf:RDF>
<cc:Work rdf:about="">
<dc:format>image/svg+xml</dc:format>
<dc:type rdf:resource="http://purl.org/dc/dcmitype/StillImage"/>
</cc:Work>
</rdf:RDF>
</metadata>
<g transform="translate(-404.959,-219.9609)" fill="none">
<rect style="color:#000000" height="16" width="16" y="220" x="405" stroke-width=".7"/>
<path d="m105.5 258.5h1" transform="translate(304.959,-25.03912)" stroke="#000" stroke-linecap="square" stroke-width="1px"/>
<path d="m105.5 258.5h1" transform="translate(304.959 -25.03912)" stroke="#000" stroke-linecap="square" stroke-width="1px"/>
<path d="m105.5 258.5h1" transform="translate(304.959 -25.03912)" stroke="#000" stroke-linecap="square" stroke-width="1px"/>
<path d="m105.5 258.5h1" transform="translate(304.959 -25.03912)" stroke="#000" stroke-linecap="square" stroke-width="1px"/>
<path d="m407.459 230.4609v-1" stroke="#000" stroke-linecap="square" stroke-width="1px"/>
<path d="m407.459 230.4609v-1" transform="translate(0 -3)" stroke="#000" stroke-linecap="square" stroke-width="1px"/>
<path d="m407.459 230.4609v-1" transform="translate(0 -6)" stroke="#000" stroke-linecap="square" stroke-width="1px"/>
<path d="m407.459 230.4609v-1" transform="translate(0 -9)" stroke="#000" stroke-linecap="square" stroke-width="1px"/>
<path d="m405.459 233.4609h3" stroke="#000" stroke-linecap="square" stroke-width="1px"/>
<path d="m407.459 235.4609v-3" stroke="#000" stroke-linecap="square" stroke-width="1px"/>
</g>
</svg>
